…
7.5, a. arrange(sex,desc(count)) b. filter(sex==F) c. filter(sex==M, count>=22)

filter(total=sum(count))

select(name,count)

7.7, a. You only need to pass the data table name argument once.

BabyNames %>%
  group_by(year,sex) %>%
  summarise(total=sum(count))

## Source: local data frame [268 x 3]
## Groups: year [?]
## 
##     year   sex  total
##    <int> <chr>  <int>
## 1   1880     F  90993
## 2   1880     M 110491
## 3   1881     F  91954
## 4   1881     M 100746
## 5   1882     F 107850
## 6   1882     M 113687
## 7   1883     F 112322
## 8   1883     M 104630
## 9   1884     F 129022
## 10  1884     M 114446
## # ... with 258 more rows
…
