…
12.2

Portion<-
  BabyNames %>%
  group_by(year, name) %>%
  summarise(total = sum(count)) %>%
  mutate(Frac10 = ifelse(rank(desc(total)) <= 100, "True", "False" )) %>%
  group_by(year, Frac10) %>%
  summarise(total = sum(total))
Portion

## Source: local data frame [268 x 3]
## Groups: year [?]
## 
##     year Frac10  total
##    <int>  <chr>  <int>
## 1   1880  False  68667
## 2   1880   True 132817
## 3   1881  False  66340
## 4   1881   True 126360
## 5   1882  False  77258
## 6   1882   True 144279
## 7   1883  False  75920
## 8   1883   True 141032
## 9   1884  False  87970
## 10  1884   True 155498
## # ... with 258 more rows
…
